different_modeling/half_adder/sim.log
VCD info: dumpfile wave.vcd opened for output.
Dataflow: a=0, b=0, sum=0, carry=0
Dataflow: a=0, b=1, sum=1, carry=0
Dataflow: a=1, b=0, sum=1, carry=0
Dataflow: a=1, b=1, sum=0, carry=1

Behavioural: a=0, b=0, sum=0, carry=0
Behavioural: a=0, b=1, sum=1, carry=0
Behavioural: a=1, b=0, sum=1, carry=0
Behavioural: a=1, b=1, sum=0, carry=1

Gate-level: a=0, b=0, sum=0, carry=0
Gate-level: a=0, b=1, sum=1, carry=0
Gate-level: a=1, b=0, sum=1, carry=0
Gate-level: a=1, b=1, sum=0, carry=1

Switch-level: a=0, b=0, sum=0, carry=0
Switch-level: a=0, b=1, sum=1, carry=0
Switch-level: a=1, b=0, sum=1, carry=0
Switch-level: a=1, b=1, sum=0, carry=1
testbench.v:84: $finish called at 160 (1s)
